
 Dostepne instrukcje:

Instruction set:
 Lp.    bytecode    `mnemonic`(operandcount)    description
00.    0x00    `nop`(0):    'no operation'
01.    0x01    `inc-reg`(1):    'increment chosen register'
02.    0x02    `dec-reg`(1):    'decrement chosen register'
03.    0x03    `adc-alu`(0):    'add with carry alu: aa = aa + ab + carry_flag; sets carry_flag when result rolls over zero'
04.    0x04    `sbc-alu`(0):    'subtract with carry alu: aa = aa - ab - carry_flag; sets carry_flag when result rolls over zero'
05.    0x05    `xor-alu`(0):    'xor-bitwise-alu'
06.    0x06    `or-alu`(0):    'or-bitwise-alu'
07.    0x07    `and-alu`(0):    'bitwise and of both accumulators'
08.    0x08    `not-alu`(0):    'bitwise not main accumulator'
09.    0x09    `lsl-alu`(0):    'logical shift left main accumulator'
10.    0x0a    `lsr-alu`(0):    'logical shift left main accumulator'
11.    0x0b    `swap-alu`(0):    'swap accumulators'
12.    0x0c    `seta-val`(1):    'set-a-to-value'
13.    0x0d    `set-pointer`(2):    'set-pointer-to-value(2 bytes)'
14.    0x0e    `jump`(2):    'jump to adres'
15.    0x0f    `jump-if-flag`(2):    'if (flag == true) { jump <adres>; }'
16.    0x10    `flag-negate`(0):    'negate condition flag'
17.    0x11    `flag-if-zero`(0):    'set condition flag is accumulator is zero'
18.    0x12    `flag-if-carry`(0):    'set condition flag is carry flag is set'
19.    0x13    `push-aa`(0):    'push acumulator onto stack'
20.    0x14    `pop-aa`(0):    'pop to acumulator'
21.    0x15    `push-value`(1):    'push value (1 byte) onto stack'
22.    0x16    `pop-reg`(1):    'pop to chosen register'
23.    0x17    `push-reg`(1):    'push value of register onto stack'
24.    0x18    `push-value`(1):    'push one byte value'
25.    0x19    `push-adres`(2):    'push 2-byte (adres) value'
26.    0x1a    `call`(2):    'call-procedure (push instruction counter and jump)'
27.    0x1b    `call-if-flag`(2):    'call procedure if condition flag is set'
28.    0x1c    `return`(2):    'return from procedure: pops stack into instruction counter registers'
29.    0x1d    `save-aa`(2):    'save-accumulator-to-memory'
30.    0x1e    `load-aa`(2):    'load-accumulator-from-memory'
31.    0x1f    `save-index-aa`(0):    'save accumulator to memory at index pointer'
32.    0x20    `load-index-aa`(0):    'load accumulator to memory from index pointer'

